
書式 :

COUNTSTYLE(範囲, スタイル [, 機能])
- <範囲>     : スタイルが含まれるセル範囲を指定
- <スタイル> : スタイル名を指定 (スタイル名は大文字と小文字を区別)
- <機能>     : 実行する機能を整数で指定
       0 または省略 : セルの個数を数える
       1 : 値の合計を求める
       2 : 空ではないセルの個数を数える
       3 : 平均値を求める
       4 : 最大値を求める
       5 : 最小値を求める
       6 : 数値の個数を数える

CELLSTYLE(セル)
- <セル> : スタイル名を取得するセルを指定

